<?xml version="1.0" encoding="UTF-8" standalone="no"?>
<!-- Created with Inkscape (http://www.inkscape.org/) -->

<svg xmlns:dc="http://purl.org/dc/elements/1.1/" xmlns:cc="http://creativecommons.org/ns#" xmlns:rdf="http://www.w3.org/1999/02/22-rdf-syntax-ns#" xmlns:svg="http://www.w3.org/2000/svg" xmlns="http://www.w3.org/2000/svg" xmlns:sodipodi="http://sodipodi.sourceforge.net/DTD/sodipodi-0.dtd" xmlns:inkscape="http://www.inkscape.org/namespaces/inkscape" width="500pt" height="500pt" viewBox="0 0 625.00002 625" id="svg2" version="1.1" inkscape:version="0.91 r13725" sodipodi:docname="favicon.svg">
  <defs id="defs4" />
  <sodipodi:namedview id="base" pagecolor="#ffffff" bordercolor="#666666" borderopacity="1.0" inkscape:pageopacity="0.0" inkscape:pageshadow="2" inkscape:zoom="0.7" inkscape:cx="39.333656" inkscape:cy="239.36477" inkscape:document-units="pt" inkscape:current-layer="layer1" showgrid="false" units="pt" fit-margin-top="10" fit-margin-left="10" fit-margin-right="10" fit-margin-bottom="10" inkscape:window-width="1366" inkscape:window-height="712" inkscape:window-x="0" inkscape:window-y="36" inkscape:window-maximized="1" />
  <metadata id="metadata7">
    <rdf:RDF>
      <cc:Work rdf:about="">
        <dc:format>image/svg+xml</dc:format>
        <dc:type rdf:resource="http://purl.org/dc/dcmitype/StillImage" />
        <dc:title></dc:title>
      </cc:Work>
    </rdf:RDF>
  </metadata>
  <g inkscape:label="Lawless" inkscape:groupmode="layer" id="layer1" transform="translate(-184.94257,95.456138)">
    <flowRoot xml:space="preserve" id="flowRoot4136" style="font-style:normal;font-variant:normal;font-weight:normal;font-stretch:normal;font-size:15px;line-height:125%;font-family:Arundina;-inkscape-font-specification:Arundina;text-align:start;letter-spacing:0px;word-spacing:0px;writing-mode:lr-tb;text-anchor:start;fill:#000000;fill-opacity:1;stroke:none;stroke-width:1px;stroke-linecap:butt;stroke-linejoin:miter;stroke-opacity:1"><flowRegion id="flowRegion4138"><rect id="rect4140" width="305.71429" height="237.14285" x="57.142857" y="72.362206" style="font-style:normal;font-variant:normal;font-weight:normal;font-stretch:normal;font-family:Arundina;-inkscape-font-specification:Arundina" /></flowRegion><flowPara id="flowPara4142"></flowPara></flowRoot>    <text xml:space="preserve" style="font-style:normal;font-variant:normal;font-weight:normal;font-stretch:normal;font-size:329.46878052px;line-height:125%;font-family:'DEC Terminal Modern';-inkscape-font-specification:'DEC Terminal Modern, Normal';text-align:start;letter-spacing:0px;word-spacing:0px;writing-mode:lr-tb;text-anchor:start;fill:#000000;fill-opacity:1;stroke:none;stroke-width:1px;stroke-linecap:butt;stroke-linejoin:miter;stroke-opacity:1" x="199.19325" y="335.37805" id="text4144-1" sodipodi:linespacing="125%"><tspan sodipodi:role="line" id="tspan4146-5" x="199.19325" y="335.37805" style="font-style:normal;font-variant:normal;font-weight:normal;font-stretch:normal;font-family:Electron;-inkscape-font-specification:Electron">LLS</tspan></text>
  </g>
</svg>
